0.074759006500244
0.073382139205933
0.071370124816895
0.071146011352539
0.071613788604736
0.072274923324585
0.072480916976929
0.071342945098877
0.071535110473633
0.071598052978516
0.071754932403564
0.071053028106689
0.071822881698608
0.072301864624023
0.072303056716919
0.072760105133057
0.072089910507202
0.070916175842285
0.07103705406189
0.071254968643188
0.07475209236145
0.074290037155151
0.072571039199829
0.073987007141113
0.081910133361816
0.081000089645386
0.077622890472412
0.070950984954834
0.071145057678223
0.070466995239258
0.071441173553467
0.071547985076904
0.071862936019897
0.081406831741333
0.081612825393677
0.081506967544556
0.079897880554199
0.071990966796875
0.072640895843506
0.072062015533447
0.072223901748657
0.0710768699646
0.071022033691406
0.072885036468506
0.081483840942383
0.082036972045898
0.075062990188599
0.072539091110229
0.071882009506226
0.072525024414062
0.072305917739868
0.071732044219971
0.0744948387146
0.072103023529053
0.072113037109375
0.0726158618927
0.073485136032104
0.071952104568481
0.074052810668945
0.078409194946289
0.07190990447998
0.072268962860107
0.072412967681885
0.072768926620483
0.072577953338623
0.072756052017212
0.073670864105225
0.073092937469482
0.073288202285767
0.078104972839355
0.073822975158691
0.071929216384888
0.071533918380737
0.071615934371948
0.072662830352783
0.074556112289429
0.072365999221802
0.072259902954102
0.072928190231323
0.071568012237549
0.072309017181396
0.073879957199097
0.07200288772583
0.071403026580811
0.072993993759155
0.072446823120117
0.071635007858276
0.072823047637939
0.073229074478149
0.071871042251587
0.071251153945923
0.071861028671265
0.071514129638672
0.071100950241089
0.079673051834106
0.081776857376099
0.082473993301392
0.081223964691162
0.08198094367981
0.081197023391724
0.081152200698853
0.081573963165283
0.081300020217896
0.080876111984253
0.072219133377075
0.070929050445557
0.072355031967163
0.072360992431641
0.071038007736206
0.071200132369995
0.071053981781006
0.071257829666138
0.071743011474609
0.071598052978516
0.071461200714111
0.071040868759155
0.070966958999634
0.071103096008301
0.071067094802856
0.070959091186523
0.07223105430603
0.073508977890015
0.072031021118164
0.071439981460571
0.071165084838867
0.072645902633667
0.071962833404541
0.072023153305054
0.072212934494019
0.071879148483276
0.071091175079346
0.071503162384033
0.071989059448242
0.07172703742981
0.071815967559814
0.0711510181427
0.071063041687012
0.071172952651978
0.071279048919678
0.071532011032104
0.072000026702881
0.071781873703003
0.071890115737915
0.071629047393799
0.071974992752075
0.072741031646729
0.071600914001465
0.071529150009155
0.07145881652832
0.071295976638794
0.071457862854004
0.071282863616943
0.071449041366577
0.071623086929321
0.071859836578369
0.07289981842041
0.071511030197144
0.071860074996948
0.071274995803833
0.070999145507812
0.071675062179565
0.072422027587891
0.072569847106934
0.072205781936646
0.07172703742981
0.071003913879395
0.072569131851196
0.081818103790283
0.081886053085327
0.081489086151123
0.081473112106323
0.082052946090698
0.08282208442688
0.072311878204346
0.072139978408813
0.072082996368408
0.07202410697937
0.072242021560669
0.072192907333374
0.071704149246216
0.07160210609436
0.071959972381592
0.076797008514404
0.081626892089844
0.081270933151245
0.081174850463867
0.081743001937866
0.081115961074829
0.081398963928223
0.081692934036255
0.073045015335083
0.07266092300415
0.071682929992676
0.072086811065674
0.072129964828491
0.07249903678894
0.07234001159668
0.072918891906738
0.072004079818726
0.072987079620361
0.073089838027954
0.072896003723145
0.072986841201782
0.073096036911011
0.07179594039917
0.072075843811035
0.072223901748657
0.072293043136597
0.071802854537964
0.082794189453125
0.083513021469116
0.074527978897095
0.071729898452759
0.072387933731079
0.072099924087524
0.071855068206787
0.072336912155151
0.072134971618652
0.072002172470093
0.071954965591431
0.071727991104126
0.072277069091797
0.074397087097168
0.073033094406128
0.072463035583496
0.071508884429932
0.072330951690674
0.071938037872314
0.071739196777344
0.072402000427246
0.072134971618652
0.072080135345459
0.07403302192688
0.071908950805664
0.070996046066284
0.071650981903076
0.071224927902222
0.072023153305054
0.07169508934021
0.071202039718628
0.071384906768799
0.071466207504272
0.072157859802246
0.072016000747681
0.072650194168091
0.072406053543091
0.072205066680908
0.072197914123535
0.071625947952271
0.071712017059326
0.071633100509644
0.071194171905518
0.072017908096313
0.072025060653687
0.071286201477051
0.071085929870605
0.071123123168945
0.077800989151001
0.081986904144287
0.081252813339233
0.080925941467285
0.080972909927368
0.08082103729248
0.08141303062439
0.0814368724823
0.081355094909668
0.081301927566528
0.081488847732544
0.081283092498779
0.081699132919312
0.081727027893066
0.081658124923706
0.08132004737854
0.081399917602539
0.0814368724823
0.073719024658203
0.082113027572632
0.13456678390503
0.071738004684448
0.071784973144531
0.080891132354736
0.079060077667236
0.083884000778198
0.083717823028564
0.084038019180298
0.082942008972168
0.07687520980835
0.071987152099609
0.071640014648438
0.071900844573975
0.07209300994873
0.071978092193604
0.073166131973267
0.07149600982666
0.07262396812439
0.073386907577515
0.072736024856567
0.071896076202393
0.072055101394653
0.081588983535767
0.081377983093262
0.081736087799072
0.081432819366455
0.081453084945679
0.081989049911499
0.082933902740479
0.081459045410156
0.074221134185791
0.071474075317383
0.072255849838257
0.071364164352417
0.071319818496704
0.072054147720337
0.071515083312988
0.073608875274658
0.072451114654541
0.071348905563354
0.072030067443848
0.07303786277771
0.071935892105103
0.07177996635437
0.072851896286011
0.073390960693359
0.072780847549438
0.074851989746094
0.081486940383911
0.080917835235596
0.081241846084595
0.081348896026611
0.081434011459351
0.081041097640991
0.081876039505005
0.081906080245972
0.073505878448486
0.070850849151611
0.070930957794189
0.071810960769653
0.071454048156738
0.071654081344604
0.071566104888916
0.071735858917236
0.071514129638672
0.07250189781189
0.071966886520386
0.075598001480103
0.078358173370361
0.072115182876587
0.071650981903076
0.071034908294678
0.071178913116455
0.071969032287598
0.070766925811768
0.071397066116333
0.071256875991821
0.071345090866089
0.071213006973267
0.071123838424683
0.072092056274414
0.071423053741455
0.07221508026123
0.072113990783691
0.072142124176025
0.072557926177979
0.071765899658203
0.072525024414062
0.071881055831909
0.072323799133301
0.071569919586182
0.071757078170776
0.071495056152344
0.071730136871338
0.071344137191772
0.071649074554443
0.07158899307251
0.071674108505249
0.071620941162109
0.071680068969727
0.071758985519409
0.072200059890747
0.071980953216553
0.071870088577271
0.072244882583618
0.072327852249146
0.071856021881104
0.071566820144653
0.072390079498291
0.072013139724731
0.07228422164917
0.071979999542236
0.072116851806641
0.07221794128418
0.072310924530029
0.071452856063843
0.071824073791504
0.071931123733521
0.071911811828613
0.072307109832764
0.072579145431519
0.072494029998779
0.072274923324585
0.072269201278687
0.10234189033508
0.072077035903931
0.073770046234131
0.072051048278809
0.072205066680908
0.072654962539673
0.072484016418457
0.072415113449097
0.071499824523926
0.07154393196106
0.072246074676514
0.071953058242798
0.071668148040771
0.07172703742981
0.071990966796875
0.071981906890869
0.072367191314697
0.072126150131226
0.07209300994873
0.072433948516846
0.071222066879272
0.071182012557983
0.071770906448364
0.072654008865356
0.072018146514893
0.073515892028809
0.072344064712524
0.071794986724854
0.072632074356079
0.071745157241821
0.072597026824951
0.072118997573853
0.072598934173584
0.072202920913696
0.071468114852905
0.071561098098755
0.071583986282349
0.071462154388428
0.072004079818726
0.071984052658081
0.071605920791626
0.072911977767944
0.073068141937256
0.07258677482605
0.071630001068115
0.071532964706421
0.07245397567749
0.07383394241333
0.082121849060059
0.081192016601562
0.079519987106323
0.071266889572144
0.071014165878296
0.071230888366699
0.07759690284729
0.075332880020142
0.072436809539795
0.07227087020874
0.072515964508057
0.072509050369263
0.071722030639648
0.080488204956055
0.077035903930664
0.071575880050659
0.071941137313843
0.071476936340332
0.071335077285767
0.07176399230957
0.072132110595703
0.072839021682739
0.072143077850342
0.072046995162964
0.071558952331543
0.071948051452637
0.071930885314941
0.071715116500854
0.072274923324585
0.071908950805664
0.071945905685425
0.071799039840698
0.071599006652832
0.071607828140259
0.0711669921875
0.071280002593994
0.070886135101318
0.070750951766968
0.071077108383179
0.070668935775757
0.071511030197144
0.070854902267456
0.070992946624756
0.07089900970459
0.071175098419189
0.071315050125122
0.071014165878296
0.071259021759033
0.071701049804688
0.0709228515625
0.071498155593872
0.071856021881104
0.07151198387146
0.071328163146973
0.071368932723999
0.07193398475647
0.071552991867065
0.07192587852478
0.072330951690674
0.072050809860229
0.072362184524536
0.073364973068237
0.080006837844849
0.071820974349976
0.071703910827637
0.072166919708252
0.072237014770508
0.071555137634277
0.071694850921631
0.071483135223389
0.07192587852478
0.071552038192749
0.071672916412354
0.070996999740601
0.071643114089966
0.077989816665649
0.083051919937134
0.22661304473877
0.074609041213989
0.072914123535156
0.07685399055481
0.072187900543213
0.072261095046997
0.071473121643066
0.073841094970703
0.071902990341187
0.071620225906372
0.071831941604614
0.071753978729248
0.072413921356201
0.073001146316528
0.081703901290894
0.080966949462891
0.081279993057251
0.073100805282593
0.071141004562378
0.07227897644043
0.072329998016357
0.07204794883728
0.07182502746582
0.072077989578247
0.072322130203247
0.072854042053223
0.071432113647461
0.072553873062134
0.072274923324585
0.071456909179688
0.071943998336792
0.07211709022522
0.07218599319458
0.072190999984741
0.071742057800293
0.072628021240234
0.073791027069092
0.080053091049194
0.082504987716675
0.074163913726807
0.071230173110962
0.0715651512146
0.071460962295532
0.070888042449951
0.071527004241943
0.071094989776611
0.07157301902771
0.07175612449646
0.071798086166382
0.071027994155884
0.071393013000488
0.071348905563354
0.071221828460693
0.071165084838867
0.071594953536987
0.071647882461548
0.071341991424561
0.071745872497559
0.0711350440979
0.071189880371094
0.071394205093384
0.071372032165527
0.071491956710815
0.071624994277954
0.071383953094482
0.071380853652954
0.071146011352539
0.071813106536865
0.072289943695068
0.071771144866943
0.071926116943359
0.071732997894287
0.071934938430786
0.071479082107544
0.071712017059326
0.07160496711731
0.071513175964355
0.072019100189209
0.071757078170776
0.071481943130493
0.071263074874878
0.071252822875977
0.071153879165649
0.072264194488525
0.071494102478027
0.071848154067993
0.070975065231323
0.071109056472778
0.071747064590454
0.072364091873169
0.071480989456177
0.071136951446533
0.0711989402771
0.071413993835449
0.071292877197266
0.07106614112854
0.071269989013672
0.071241140365601
0.071056842803955
0.071979999542236
0.071830034255981
0.07175087928772
0.071796894073486
0.072054862976074
0.072673082351685
0.071581125259399
0.073891162872314
0.072017908096313
0.071593046188354
0.071834087371826
0.071506977081299
0.071197032928467
0.071197986602783
0.07186222076416
0.07161283493042
0.07189416885376
0.072108030319214
0.072268009185791
0.071637868881226
0.071352005004883
0.072093963623047
0.072674989700317
0.071400165557861
0.071823120117188
0.071975946426392
0.071378946304321
0.071038007736206
0.071168899536133
0.07154393196106
0.072649955749512
0.072345018386841
0.072731018066406
0.071247100830078
0.071177005767822
0.070962905883789
0.071123123168945
0.071713924407959
0.071589946746826
0.072181940078735
0.23410391807556
0.081001043319702
0.077421903610229
0.073779106140137
0.074476003646851
0.072037935256958
0.071619987487793
0.071359872817993
0.071631908416748
0.070950031280518
0.071503877639771
0.072104930877686
0.071290016174316
0.071636915206909
0.071167945861816
0.071125030517578
0.072319030761719
0.071208953857422
0.07147479057312
0.071467876434326
0.071084022521973
0.071138858795166
0.071820020675659
0.071542978286743
0.071181058883667
0.075112104415894
0.073186159133911
0.072522878646851
0.071408987045288
0.071394920349121
0.0727219581604
0.072020053863525
0.075891017913818
0.082596063613892
0.082610845565796
0.083073854446411
0.078567028045654
0.070798873901367
0.072665929794312
0.071702003479004
0.071930885314941
0.071816921234131
0.071790933609009
0.073729038238525
0.078639984130859
0.072104930877686
0.072458982467651
0.07223105430603
0.072097063064575
0.072283029556274
0.071899890899658
0.072366952896118
0.071707963943481
0.071671962738037
0.071706056594849
0.071870088577271
0.071620941162109
0.076465845108032
0.076263904571533
0.071680068969727
0.071101188659668
0.07199501991272
0.07148003578186
0.072345972061157
0.072050094604492
0.071552991867065
0.071820974349976
0.071559906005859
0.071637153625488
0.071774005889893
0.071892976760864
0.072158098220825
0.071047067642212
0.072378158569336
0.071186065673828
0.071187973022461
0.0714271068573
0.071985006332397
0.072540044784546
0.073045015335083
0.070860147476196
0.070805788040161
0.075594902038574
0.082880973815918
0.082844018936157
0.082661151885986
0.082396030426025
0.071941137313843
0.071745872497559
0.071660995483398
0.072406053543091
0.073187828063965
0.073349952697754
0.072406053543091
0.072145938873291
0.07189679145813
0.07182502746582
0.071758031845093
0.071651935577393
0.071762800216675
0.07165789604187
0.072021961212158
0.073299884796143
0.072103977203369
0.072284936904907
0.072412967681885
0.072191953659058
0.07176399230957
0.072137117385864
0.072088003158569
0.071547031402588
0.071860790252686
0.072700977325439
0.072381019592285
0.072028875350952
0.071793079376221
0.072600126266479
0.073344945907593
0.073239803314209
0.072237014770508
0.072593927383423
0.072291851043701
0.071765899658203
0.07213306427002
0.072402954101562
0.072110891342163
0.072206974029541
0.073383092880249
0.072096109390259
0.071916818618774
0.079047918319702
0.08368182182312
0.083196878433228
0.082648992538452
0.082479953765869
0.082808971405029
0.082362174987793
0.082066059112549
0.072673082351685
0.071451187133789
0.071601152420044
0.071331977844238
0.071249961853027
0.071455955505371
0.071698188781738
0.072240114212036
0.07149600982666
0.072343111038208
0.07305383682251
0.071816921234131
0.071709156036377
0.071661949157715
0.072027921676636
0.071952104568481
0.07119083404541
0.071050882339478
0.082419872283936
0.071479797363281
0.077833890914917
0.071831941604614
0.071173191070557
0.071062088012695
0.070764064788818
0.070764064788818
0.070977210998535
0.071358919143677
0.071075916290283
0.071247100830078
0.071280002593994
0.07098913192749
0.071377992630005
0.071691989898682
0.071938037872314
0.072088956832886
0.072039842605591
0.071341991424561
0.071092128753662
0.071340084075928
0.07151198387146
0.07154393196106
0.071175098419189
0.071388006210327
0.071684122085571
0.071875810623169
0.071777105331421
0.071595907211304
0.071754932403564
0.072442054748535
0.072573900222778
0.072196960449219
0.071768045425415
0.071789979934692
0.071801900863647
0.072026014328003
0.072018146514893
0.071964979171753
0.071907997131348
0.072074174880981
0.071783065795898
0.071751117706299
0.071635007858276
0.072258949279785
0.072757005691528
0.073048830032349
0.07275390625
0.07371711730957
0.073522090911865
0.072382211685181
0.073283910751343
0.072930097579956
0.071660995483398
0.071645021438599
0.071974992752075
0.071707963943481
0.071738004684448
0.071635007858276
0.07188606262207
0.074131011962891
0.071398019790649
0.071851968765259
0.072256088256836
0.071617126464844
0.073340177536011
0.07536792755127
0.07849907875061
0.08161187171936
0.076805114746094
0.071659088134766
0.072323083877563
0.073721885681152
0.071932077407837
0.072196960449219
0.071424961090088
0.071980953216553
0.073792934417725
0.072202920913696
0.075598001480103
0.071865797042847
0.07114315032959
0.071748018264771
0.073436975479126
0.071822881698608
0.072113990783691
0.16176199913025
0.085216999053955
0.071924924850464
0.071303129196167
0.07246208190918
0.071977138519287
0.072781085968018
0.071551084518433
0.077471017837524
0.081546783447266
0.071162939071655
0.075732946395874
0.081275939941406
0.081350088119507
0.081231117248535
0.081463098526001
0.081008911132812
0.080073118209839
0.071333885192871
0.075170993804932
0.078346967697144
0.082676887512207
0.081299066543579
0.077729940414429
0.072016954421997
0.072571992874146
0.071797132492065
0.071817874908447
0.071928977966309
0.072110176086426
0.072057008743286
0.077793121337891
0.071735143661499
0.072086095809937
0.071783065795898
0.071881055831909
0.072094917297363
0.071709156036377
0.072087049484253
0.072715997695923
0.071570873260498
0.071530103683472
0.071233034133911
0.071258068084717
0.071501970291138
0.071090936660767
0.0711510181427
0.071294069290161
0.071159839630127
0.074415922164917
0.073640108108521
0.072478055953979
0.073205947875977
0.072216033935547
0.070879936218262
0.0711989402771
0.071568965911865
0.071648120880127
0.071319103240967
0.071980953216553
0.071330070495605
0.071367979049683
0.071250915527344
0.071650981903076
0.071527004241943
0.071542024612427
0.071521043777466
0.29352784156799
0.071898937225342
0.071935176849365
0.071576118469238
0.072520971298218
0.071397066116333
0.071294069290161
0.072890996932983
0.07201886177063
0.072315216064453
0.07278299331665
0.072299003601074
0.072393894195557
0.072316884994507
0.072027921676636
0.073165893554688
0.072386980056763
0.072262048721313
0.071785926818848
0.072057008743286
0.072234153747559
0.072109937667847
0.072763919830322
0.071935892105103
0.0728600025177
0.072498083114624
0.072273015975952
0.075212001800537
0.082830905914307
0.072439193725586
0.071763038635254
0.071525812149048
0.071843862533569
0.072246074676514
0.078739881515503
0.075268030166626
0.071138143539429
0.071010112762451
0.071732044219971
0.072052001953125
0.072021961212158
0.080986976623535
0.083406925201416
0.082429885864258
0.082627773284912
0.082803010940552
0.071314811706543
0.070908784866333
0.071082830429077
0.071199893951416
0.072397947311401
0.071670055389404
0.072201013565063
0.071784019470215
0.072402954101562
0.071613073348999
0.071868896484375
0.071663856506348
0.072158098220825
0.071612119674683
0.071676015853882
0.072206020355225
0.071878910064697
0.072635889053345
0.072527885437012
0.071371793746948
0.070986032485962
0.071339845657349
0.071293115615845
0.34227609634399
0.071846961975098
0.076251029968262
0.082760095596313
0.076719045639038
0.071506023406982
0.071233034133911
0.071017980575562
0.071269989013672
0.071303844451904
0.071583032608032
0.071446895599365
0.071364879608154
0.081580877304077
0.074831962585449
0.074042081832886
0.072126865386963
0.071558952331543
0.072880029678345
0.071943998336792
0.072323083877563
0.072286128997803
0.073395013809204
0.072669982910156
0.073184967041016
0.072526931762695
0.073716878890991
0.074063062667847
0.072571039199829
0.072655916213989
0.072198152542114
0.072658061981201
0.073071002960205
0.072848796844482
0.072435855865479
0.072022914886475
0.072118997573853
0.072327852249146
0.073442935943604
0.080356121063232
0.082070827484131
0.082256078720093
0.082659006118774
0.074485063552856
0.076081991195679
0.10080409049988
0.07396388053894
0.072025060653687
0.071115016937256
0.071637868881226
0.071761846542358
0.071062088012695
0.078124046325684
0.072762012481689
0.07219386100769
0.071619033813477
0.072020053863525
0.17132806777954
0.071989059448242
0.072157144546509
0.071939945220947
0.07280707359314
0.072222948074341
0.071563005447388
0.075974941253662
0.073544025421143
0.072121858596802
0.072613000869751
0.071712970733643
0.072896957397461
0.072094917297363
0.07143497467041
0.071341991424561
0.072643041610718
0.071950197219849
0.071161985397339
0.07190203666687
0.071353197097778
0.071620941162109
0.07280707359314
0.071507930755615
0.071216106414795
0.072991847991943
0.072277069091797
0.072229862213135
0.072157144546509
0.071559190750122
0.072566032409668
0.071871995925903
0.072679042816162
0.073824882507324
0.072697162628174
0.072428941726685
0.073071002960205
0.073276996612549
0.072365999221802
0.071937084197998
0.072306871414185
0.072187900543213
0.071918964385986
0.073660850524902
0.073579072952271
0.072165012359619
0.071579933166504
0.072057008743286
0.072081089019775
0.072393894195557
0.072869062423706
0.071743011474609
0.072566986083984
0.072805881500244
0.072252988815308
0.072165012359619
0.072023153305054
0.072777986526489
0.073061227798462
0.071712017059326
0.072533845901489
0.072575092315674
0.07259202003479
0.0713210105896
0.072021961212158
0.073148012161255
0.071828842163086
0.071798086166382
0.072486877441406
0.071671009063721
0.072036981582642
0.071670055389404
0.071463108062744
0.071053028106689
0.071184873580933
0.070976972579956
0.071887016296387
0.072000026702881
0.07129693031311
0.071991920471191
0.070873975753784
0.072419881820679
0.072930097579956
0.072226047515869
0.07171893119812
0.072348117828369
0.073122978210449
0.072382211685181
0.071353912353516
0.07279109954834
0.072410821914673
0.072305202484131
0.072087049484253
0.071645975112915
0.071981906890869
0.071439981460571
0.072306871414185
0.072365999221802
0.072052001953125
0.072605848312378
0.075121879577637
0.083873987197876
0.075695991516113
0.072575807571411
0.071998834609985
0.071833848953247
0.071960926055908
0.071966886520386
0.072309017181396
0.073701143264771
0.072997093200684
0.071911096572876
0.072070121765137
0.072188854217529
0.071559190750122
0.071732997894287
0.072512149810791
0.072638034820557
0.071034908294678
0.072139978408813
0.071228981018066
0.071423768997192
0.07300591468811
0.072490930557251
0.071630001068115
0.071352958679199
0.071969032287598
0.071836948394775
0.073035001754761
0.072249889373779
0.071609973907471
0.07201886177063
0.071557998657227
0.071793079376221
0.071913957595825
0.071746110916138
0.072210073471069
0.071727991104126
0.071476936340332
0.072180032730103
0.073462963104248
0.072576999664307
0.072951793670654
0.076173782348633
0.08262300491333
0.071988821029663
0.07251501083374
0.073519945144653
0.082689046859741
0.082664966583252
0.07337498664856
0.072457075119019
0.073503017425537
0.081973075866699
0.075936079025269
0.084490060806274
0.078451156616211
0.072131872177124
0.072175025939941
0.072448015213013
0.071628093719482
0.071778059005737
0.071516990661621
0.071388959884644
0.071508884429932
0.071837902069092
0.071866989135742
0.071742057800293
0.073135137557983
0.072578907012939
0.073065996170044
0.072341918945312
0.071825981140137
0.071987152099609
0.074159145355225
0.071844100952148
0.073078870773315
0.07281494140625
0.072350025177002
0.072293043136597
0.071758031845093
0.071617841720581
0.071631908416748
0.072540044784546
0.072517871856689
0.072716951370239
0.072497129440308
0.072202920913696
0.077378988265991
0.082278966903687
0.083256959915161
0.076128959655762
0.072175979614258
0.072741031646729
0.07179594039917
0.071763038635254
0.072697162628174
0.072273015975952
0.072676181793213
0.073101043701172
0.073588132858276
0.072455167770386
0.072574138641357
0.072463989257812
0.072483062744141
0.071887016296387
0.071923971176147
0.071958065032959
0.074023008346558
0.082810163497925
0.082256078720093
0.072669982910156
0.071250915527344
0.071226119995117
0.071406126022339
0.071747064590454
0.071491956710815
0.071614980697632
0.073349952697754
0.072604894638062
0.071441888809204
0.07243800163269
0.073682069778442
0.072038888931274
0.072967052459717
0.07320499420166
0.072053909301758
0.072283983230591
0.071901082992554
0.072660207748413
0.072386026382446
0.072847843170166
0.073635101318359
0.072432041168213
0.072570085525513
0.072102069854736
0.072628974914551
0.074625968933105
0.072821855545044
0.072352170944214
0.072355985641479
0.072771072387695
0.072185039520264
0.072362899780273
0.072304964065552
0.072257041931152
0.072443008422852
0.072443962097168
0.072148084640503
0.07206392288208
0.071841955184937
0.071796178817749
0.07274317741394
0.073627948760986
0.071968793869019
0.071549892425537
0.073806047439575
0.08253288269043
0.082508087158203
0.077746152877808
0.07207202911377
0.071398973464966
0.071815967559814
0.078818798065186
0.082563877105713
0.081960916519165
0.077484130859375
0.071572065353394
0.071672916412354
0.072031021118164
0.071681022644043
0.071923017501831
0.07171106338501
0.072409152984619
0.071476221084595
0.071692943572998
0.071907997131348
0.071809053421021
0.072506189346313
0.072307109832764
0.072654008865356
0.072474956512451
0.071689128875732
0.072218894958496
0.0709547996521
0.071269989013672
0.072515964508057
0.072686910629272
0.072141885757446
0.072190999984741
0.072274923324585
0.071996927261353
0.072150945663452
0.07258415222168
0.072054862976074
0.071603775024414
0.071835994720459
0.073227882385254
0.072160005569458
0.07193398475647
0.07188892364502
0.07212495803833
0.07143497467041
0.072619915008545
0.072029113769531
0.071985006332397
0.072818994522095
0.071952104568481
0.073153018951416
0.074788093566895
0.07342791557312
0.075393915176392
0.072154998779297
0.071789026260376
0.072612047195435
0.073257923126221
0.072016954421997
0.072023868560791
0.072786092758179
0.072434186935425
0.072260141372681
0.13630890846252
0.073533058166504
0.071487903594971
0.072319984436035
0.07170295715332
0.07225513458252
0.071849822998047
0.072118043899536
0.073915958404541
0.071953058242798
0.071467161178589
0.071135997772217
0.072086095809937
0.072005987167358
0.072561025619507
0.072076082229614
0.071809053421021
0.071774005889893
0.071984052658081
0.07257604598999
0.072638988494873
0.073096990585327
0.072256088256836
0.071805953979492
0.071599006652832
0.071547985076904
0.072318077087402
0.07374382019043
0.074205160140991
0.07181191444397
0.071752071380615
0.071489095687866
0.071268081665039
0.071652889251709
0.073209047317505
0.072209119796753
0.071598052978516
0.071215867996216
0.070807933807373
0.070987939834595
0.071240901947021
0.072405099868774
0.071640968322754
0.07234001159668
0.072556018829346
0.071905136108398
0.073530912399292
0.072293996810913
0.072568893432617
0.072901010513306
0.072344064712524
0.072606086730957
0.071924924850464
0.072098016738892
0.072169780731201
0.072257995605469
0.072346925735474
0.072212934494019
0.077325105667114
0.082266092300415
0.082923173904419
0.082357168197632
0.082099914550781
0.082170009613037
0.082704067230225
0.082322120666504
0.082249164581299
0.082563877105713
0.082544088363647
0.082363843917847
0.08234715461731
0.082098960876465
0.082228899002075
0.083050012588501
0.074473857879639
0.071828126907349
0.07167911529541
0.072435855865479
0.071945905685425
0.075178861618042
0.082695960998535
0.082506895065308
0.08227014541626
0.082165002822876
0.082661151885986
0.082352876663208
0.082921981811523
0.082134962081909
0.082139015197754
0.082257032394409
0.082092046737671
0.082867860794067
0.082641124725342
0.08271598815918
0.082632064819336
0.076456069946289
0.072022914886475
0.071494102478027
0.071255922317505
0.071984052658081
0.07204794883728
0.071924924850464
0.071810007095337
0.07163405418396
0.071749925613403
0.072089910507202
0.071811199188232
0.073363065719604
0.071915149688721
0.07245397567749
0.072531938552856
0.072920083999634
0.073129177093506
0.072597980499268
0.072699069976807
0.072882890701294
0.071758985519409
0.071153879165649
0.072432041168213
0.07293701171875
0.072371006011963
0.07331395149231
0.07177996635437
0.071191072463989
0.071367025375366
0.071537971496582
0.078548908233643
0.072386980056763
0.072357177734375
0.071918964385986
0.071697950363159
0.071509122848511
0.071679830551147
0.071649074554443
0.071745872497559
0.071672916412354
0.071382999420166
0.071777105331421
0.073168039321899
0.072454929351807
0.074244022369385
0.072422027587891
0.072184085845947
0.071779012680054
0.071696996688843
0.072169065475464
0.072130918502808
0.07205605506897
0.072414875030518
0.072046995162964
0.072186946868896
0.071727991104126
0.071552038192749
0.071876049041748
0.071763038635254
0.071768999099731
0.071532011032104
0.072285890579224
0.071812152862549
0.07160496711731
0.071187973022461
0.072039127349854
0.07141900062561
0.071918964385986
0.071491003036499
0.071233034133911
0.071815013885498
0.071344137191772
0.072577953338623
0.071432113647461
0.071307897567749
0.07171893119812
0.071701049804688
0.071451187133789
0.07154107093811
0.071578979492188
0.071678876876831
0.072309970855713
0.11960005760193
0.071792840957642
0.071861028671265
0.072094917297363
0.072752952575684
0.071617841720581
0.071768999099731
0.07185697555542
0.072068929672241
0.072226047515869
0.071677923202515
0.071686983108521
0.072118997573853
0.07176399230957
0.07249903678894
0.072368144989014
0.072158098220825
0.072494983673096
0.072286128997803
0.071821928024292
0.071928977966309
0.083387851715088
0.07855486869812
0.071537971496582
0.071300029754639
0.072360038757324
0.072216033935547
0.071814060211182
0.072751045227051
0.071929931640625
0.071707963943481
0.071805953979492
0.071521997451782
0.071583986282349
0.071539878845215
0.071320056915283
0.071852922439575
0.07234787940979
0.071464061737061
0.071506023406982
0.071554183959961
0.071780920028687
0.071499109268188
0.071961164474487
0.071908950805664
0.071722984313965
0.071356058120728
0.071578025817871
0.071399927139282
0.071133136749268
0.070924997329712
0.071348190307617
0.071208000183105
0.071280002593994
0.072564125061035
0.071429014205933
0.071732997894287
0.071972131729126
0.071317911148071
0.072233915328979
0.071336984634399
0.071210145950317
0.071552991867065
0.071393013000488
0.071462869644165
0.071527004241943
0.071542978286743
0.07217001914978
0.071451902389526
0.077759981155396
0.082904100418091
0.08071494102478
0.072107076644897
0.072622060775757
0.073219060897827
0.07197904586792
0.072119235992432
0.071650981903076
0.072107076644897
0.071604013442993
0.072134971618652
0.072295904159546
0.072237014770508
0.071501016616821
0.0714111328125
0.07170295715332
0.072773933410645
0.072114944458008
0.073271036148071
0.073073863983154
0.071208953857422
0.07237696647644
0.07159686088562
0.071978092193604
0.073300838470459
0.074138164520264
0.077132940292358
0.083775997161865
0.082776069641113
0.082970142364502
0.083523035049438
0.075486183166504
0.071820020675659
0.071945190429688
0.071964025497437
0.071846008300781
0.071863889694214
0.072439193725586
0.072549819946289
0.072012901306152
0.071937084197998
0.071259021759033
0.071869134902954
0.071277856826782
0.071544885635376
0.072242975234985
0.071703910827637
0.071298122406006
0.071460008621216
0.071308135986328
0.071378946304321
0.071241855621338
0.071417093276978
0.071377992630005
0.071496963500977
0.071172952651978
0.071191072463989
0.071486949920654
0.071630954742432
0.071581840515137
0.072246074676514
0.072111129760742
0.071493864059448
0.07258415222168
0.071785926818848
0.071202993392944
0.071238040924072
0.074372053146362
0.08473801612854
0.16948294639587
0.072125911712646
0.072319984436035
0.071794033050537
0.07161808013916
0.071577072143555
0.071608066558838
0.073601007461548
0.072928190231323
0.07182502746582
0.071494102478027
0.073405981063843
0.072134971618652
0.071738958358765
0.074031114578247
0.071887969970703
0.072699069976807
0.072056770324707
0.071675062179565
0.071147918701172
0.071962833404541
0.072979927062988
0.072916984558105
0.072525978088379
0.073508024215698
0.08397102355957
0.083320140838623
0.073023080825806
0.072335958480835
0.07175087928772
0.072046995162964
0.072829961776733
0.07207989692688
0.072143077850342
0.072726964950562
0.071638107299805
0.070847988128662
0.071310997009277
0.072339057922363
0.071586847305298
0.071569919586182
0.071527004241943
0.071815013885498
0.071875095367432
0.072800874710083
0.073093891143799
0.072643995285034
0.072774171829224
0.072978019714355
0.072841882705688
0.072894096374512
0.072126865386963
0.081807136535645
0.077978849411011
0.076090097427368
0.072885990142822
0.072520971298218
0.072240114212036
0.072048187255859
0.072577953338623
0.073603868484497
0.072159051895142
0.071260929107666
0.07140588760376
0.071892976760864
0.075168132781982
0.083594083786011
0.083410978317261
0.082755088806152
0.082712888717651
0.087987184524536
0.082381010055542
0.08263111114502
0.082200050354004
0.083544969558716
0.083390951156616
0.083276987075806
0.083906888961792
0.082113981246948
0.079080104827881
0.071424007415771
0.071369886398315
0.07121205329895
0.071096897125244
0.078473091125488
0.082170963287354
0.082161903381348
0.08210301399231
0.082103967666626
0.082553863525391
0.08270001411438
0.081954002380371
0.082553148269653
0.082732915878296
0.082153797149658
0.082832098007202
0.082190036773682
0.079545974731445
0.071393013000488
0.071264982223511
0.073860168457031
0.07256293296814
0.07195782661438
0.071758985519409
0.071463108062744
0.071268796920776
0.071490049362183
0.07151198387146
0.071969032287598
0.071272134780884
0.072463989257812
0.072412014007568
0.072641849517822
0.083604097366333
0.082403898239136
0.082262992858887
0.082619905471802
0.08244800567627
0.08213996887207
0.082458972930908
0.082515001296997
0.082310914993286
0.082511186599731
0.082901000976562
0.082391977310181
0.082276105880737
0.082643032073975
0.082080125808716
0.083156824111938
0.082917928695679
0.082736015319824
0.082911014556885
0.082770824432373
0.083015918731689
0.082429885864258
0.082288980484009
0.082678079605103
0.082965850830078
0.082470893859863
0.082597017288208
0.13532900810242
0.071932077407837
0.071729898452759
0.072963953018188
0.072099208831787
0.072101831436157
0.079123973846436
0.082849025726318
0.082612037658691
0.082549095153809
0.082962036132812
0.082468032836914
0.08306097984314
0.084264993667603
0.086547136306763
0.076525926589966
0.074182033538818
0.07262110710144
0.071789026260376
0.071424007415771
0.071949005126953
0.071683168411255
0.071839809417725
0.072314023971558
0.072399854660034
0.071988821029663
0.078029870986938
0.073322057723999
0.078402042388916
0.072920083999634
0.073757886886597
0.073421955108643
0.078711032867432
0.081484079360962
0.081666946411133
0.0746169090271
0.072026014328003
0.071847915649414
0.074517011642456
0.083518028259277
0.078543901443481
0.076179027557373
0.072085857391357
0.07186222076416
0.071291923522949
0.071915149688721
0.072149038314819
0.071951150894165
0.07254695892334
0.072260856628418
0.072095155715942
0.07185697555542
0.072436094284058
0.072561025619507
0.073184013366699
0.072505950927734
0.07236909866333
0.080976963043213
0.072077989578247
0.071341991424561
0.07146692276001
0.074054002761841
0.08207893371582
0.081918954849243
0.081695079803467
0.078495979309082
0.071692943572998
0.072554111480713
0.080976009368896
0.083964109420776
0.083643913269043
0.084333896636963
0.083769798278809
0.083457946777344
0.083707094192505
0.084129095077515
0.083717107772827
0.079982995986938
0.081902980804443
0.082026958465576
0.079218864440918
0.071818828582764
0.071748018264771
0.071952104568481
0.07280421257019
0.073668003082275
0.073052883148193
0.082179069519043
0.084190130233765
0.081629991531372
0.081387996673584
0.081629037857056
0.081702947616577
0.081783056259155
0.081793785095215
0.081494092941284
0.081835985183716
0.081892967224121
0.081562042236328
0.081450939178467
0.081789016723633
0.081525087356567
0.081009864807129
0.081045866012573
0.081360816955566
0.08141303062439
0.081788063049316
0.081560850143433
0.081133842468262
0.07440185546875
0.071482181549072
0.07152795791626
0.071694135665894
0.072177886962891
0.072514057159424
0.072685956954956
0.072118997573853
0.071662902832031
0.071675062179565
0.072937965393066
0.071835041046143
0.072445154190063
0.071997165679932
0.082234859466553
0.083042860031128
0.081755876541138
0.081476926803589
0.081376075744629
0.081308126449585
0.081951856613159
0.082185983657837
0.082159042358398
0.082247018814087
0.082087993621826
0.082596063613892
0.082271099090576
0.082000017166138
0.081634998321533
0.081607818603516
0.081436157226562
0.081390857696533
0.081567049026489
0.081417083740234
0.08269214630127
0.082134008407593
0.27187490463257
0.082277059555054
0.081500053405762
0.081636905670166
0.081980228424072
0.081231117248535
0.082806825637817
0.082014083862305
0.0815749168396
0.082499027252197
0.081491947174072
0.081357955932617
0.081423044204712
0.081510782241821
0.082273006439209
0.08171820640564
0.081640958786011
0.081487894058228
0.081316947937012
0.081892013549805
0.081892013549805
0.082241058349609
0.081653118133545
0.081371068954468
0.081753015518188
0.08161997795105
0.081518888473511
0.082596063613892
0.081549882888794
0.081423044204712
0.081792116165161
0.081912994384766
0.081908941268921
0.082640171051025
0.081813097000122
0.082154989242554
0.081707000732422
0.081588983535767
0.081337928771973
0.082427978515625
0.082515954971313
0.081341981887817
0.081134080886841
0.081758975982666
0.081595897674561
0.081521034240723
0.0814528465271
0.081119060516357
0.080915212631226
0.081382989883423
0.082049131393433
0.081991195678711
0.081748008728027
0.082420110702515
0.082279920578003
0.07309889793396
0.071130990982056
0.0714430809021
0.071503162384033
0.073430776596069
0.072959899902344
0.072731018066406
0.081910848617554
0.081868886947632
0.081451892852783
0.082133054733276
0.082113981246948
0.081230878829956
0.081453084945679
0.082032918930054
0.081930160522461
0.081628084182739
0.081187009811401
0.080953121185303
0.081385135650635
0.081488132476807
0.081387996673584
0.082235097885132
0.082016944885254
0.080956935882568
0.081115007400513
0.081102848052979
0.081682920455933
0.081989049911499
0.082122087478638
0.081372976303101
0.081101894378662
0.081495046615601
0.081362009048462
0.081444025039673
0.081556081771851
0.082035064697266
0.082825899124146
0.081521987915039
0.081401109695435
0.081801176071167
0.082151889801025
0.073632955551147
0.071757078170776
0.081820964813232
0.082473039627075
0.081629037857056
0.081552982330322
0.081814050674438
0.082454919815063
0.081824064254761
0.081369161605835
0.081845045089722
0.081799030303955
0.081169843673706
0.081526041030884
0.081323146820068
0.081744909286499
0.081821918487549
0.082238912582397
0.082048177719116
0.08194899559021
0.082080841064453
0.081382989883423
0.081799983978271
0.082350969314575
0.081701040267944
0.081047058105469
0.13847303390503
0.081429958343506
0.081923961639404
0.081355810165405
0.081516981124878
0.08116602897644
0.081769943237305
0.081324815750122
0.081691980361938
0.081538915634155
0.081250905990601
0.080824136734009
0.08105206489563
0.08082103729248
0.08135199546814
0.081309795379639
0.08111310005188
0.081058025360107
0.081665992736816
0.082177877426147
0.08131217956543
0.081783056259155
0.081328153610229
0.080971002578735
0.081710815429688
0.081485033035278
0.081410884857178
0.081602811813354
0.081358909606934
0.081058025360107
0.081374168395996
0.081412076950073
0.081990003585815
0.081882953643799
0.081982851028442
0.081804990768433
0.081816911697388
0.081478118896484
0.081418991088867
0.081927061080933
0.081600189208984
0.081135988235474
0.082075834274292
0.081832885742188
0.08237099647522
0.08201003074646
0.081601858139038
0.081324815750122
0.082062959671021
0.081825017929077
0.081324815750122
0.081952095031738
0.081552982330322
0.081203937530518
0.08124303817749
0.08118200302124
0.081466197967529
0.082422018051147
0.082092046737671
0.082844972610474
0.082985877990723
0.081717967987061
0.082024097442627
0.074021816253662
0.072517871856689
0.071925163269043
0.071826934814453
0.072238922119141
0.072333812713623
0.07179594039917
0.072566032409668
0.072350978851318
0.072877168655396
0.07229208946228
0.07394814491272
0.072716951370239
0.072334051132202
0.072350978851318
0.07230019569397
0.072797775268555
0.073176860809326
0.080711126327515
0.082514047622681
0.072756052017212
0.072839021682739
0.072664022445679
0.07263708114624
0.072559118270874
0.07304310798645
0.072256088256836
0.072260856628418
0.072474002838135
0.073584079742432
0.072291135787964
0.072762012481689
0.071748018264771
0.072057008743286
0.07193398475647
0.07209300994873
0.071600914001465
0.071912050247192
0.078022003173828
0.08364200592041
0.083308935165405
0.071681976318359
0.071930885314941
0.071793079376221
0.072028160095215
0.072136163711548
0.071731090545654
0.07197093963623
0.071882009506226
0.07204794883728
0.071693181991577
0.071815013885498
0.072065114974976
0.071719884872437
0.072195053100586
0.073012828826904
0.077707052230835
0.082681894302368
0.082460880279541
0.081615924835205
0.08106803894043
0.073167085647583
0.071738958358765
0.072695970535278
0.071769952774048
0.078276872634888
0.081215143203735
0.081876993179321
0.10144114494324
0.082354068756104
0.082069158554077
0.083404064178467
0.078346967697144
0.073339939117432
0.072569847106934
0.073108911514282
0.071262121200562
0.07166600227356
0.072253942489624
0.072062969207764
0.072403907775879
0.073110818862915
0.07252311706543
0.072862863540649
0.071413040161133
0.071423053741455
0.071233034133911
0.072082042694092
0.071590900421143
0.073750019073486
0.072679996490479
0.071998119354248
0.070966005325317
0.071086168289185
0.071501016616821
0.071371078491211
0.071954965591431
0.071185827255249
0.074038982391357
0.082960844039917
0.083023071289062
0.081192016601562
0.071820974349976
0.073444843292236
0.071741819381714
0.072218179702759
0.072986841201782
0.074404954910278
0.079442977905273
0.072004079818726
0.071700096130371
0.072237968444824
0.072351932525635
0.072303056716919
0.072297096252441
0.071439981460571
0.072282075881958
0.071907997131348
0.071635007858276
0.071968078613281
0.07152795791626
0.07135796546936
0.071350812911987
0.071217060089111
0.071316003799438
0.071613073348999
0.071254968643188
0.071146965026855
0.071073055267334
0.071355104446411
0.071193933486938
0.070981025695801
0.071051120758057
0.071372032165527
0.071401834487915
0.071238994598389
0.17937612533569
0.071867942810059
0.071645975112915
0.07125186920166
0.071411848068237
0.070930004119873
0.071637868881226
0.076287984848022
0.071800947189331
0.07175087928772
0.072358846664429
0.071892023086548
0.071678876876831
0.072360038757324
0.072367906570435
0.072161912918091
0.071636915206909
0.071724891662598
0.072265148162842
0.072754144668579
0.072468042373657
0.071183919906616
0.071769952774048
0.072160005569458
0.071058988571167
0.071630001068115
0.072391986846924
0.08082389831543
0.077167987823486
0.071748971939087
0.072395086288452
0.07335901260376
0.072694063186646
0.072296857833862
0.072391986846924
0.072302103042603
0.073612928390503
0.071099996566772
0.070938110351562
0.0715651512146
0.071527004241943
0.071372985839844
0.071710109710693
0.071553945541382
0.071707010269165
0.07234001159668
0.071256875991821
0.071926116943359
0.071620941162109
0.071429014205933
0.071834087371826
0.071515083312988
0.072323083877563
0.074280977249146
0.073370933532715
0.073461055755615
0.072175025939941
0.073323965072632
0.071753978729248
0.074786186218262
0.074374914169312
0.072797060012817
0.073027849197388
0.0713050365448
0.071605920791626
0.071640968322754
0.071429014205933
0.073028087615967
0.072832107543945
0.072524070739746
0.16823983192444
0.075417995452881
0.073338985443115
0.072708129882812
0.072824001312256
0.072067975997925
0.071449041366577
0.07197093963623
0.071002960205078
0.072357892990112
0.072819948196411
0.072266101837158
0.07108998298645
0.071825981140137
0.072196006774902
0.071170091629028
0.07436203956604
0.082916975021362
0.082787990570068
0.081851959228516
0.081968069076538
0.082277059555054
0.082302093505859
0.082588911056519
0.07716703414917
0.071341991424561
0.072424173355103
0.072704076766968
0.071345090866089
0.073062181472778
0.08045506477356
0.082183122634888
0.08148193359375
0.073906898498535
0.071143865585327
0.072036027908325
0.072280883789062
0.073709964752197
0.07108211517334
0.07184100151062
0.084103107452393
0.081068992614746
0.072326898574829
0.072196006774902
0.072094202041626
0.071592092514038
0.071934938430786
0.072733879089355
0.071586847305298
0.077386140823364
0.08092212677002
0.071358919143677
0.071108818054199
0.071532011032104
0.071297168731689
0.07119607925415
0.072260856628418
0.072654008865356
0.071878910064697
0.071894884109497
0.072237014770508
0.071227073669434
0.071119070053101
0.071183919906616
0.071617126464844
0.071314811706543
0.2132740020752
0.072374105453491
0.073233842849731
0.072249889373779
0.071426868438721
0.071370124816895
0.071552038192749
0.071484088897705
0.071167945861816
0.073415994644165
0.071722984313965
0.071290969848633
0.071429014205933
0.071599960327148
0.071501016616821
0.071665048599243
0.071264982223511
0.073304891586304
0.0724778175354
0.072014808654785
0.071893930435181
0.072386980056763
0.083139896392822
0.072219133377075
0.07241415977478
0.072237014770508
0.072076797485352
0.072719097137451
0.071743011474609
0.072036027908325
0.071939945220947
0.070942163467407
0.072000026702881
0.071230888366699
0.071058988571167
0.070735216140747
0.074710845947266
0.08161187171936
0.072180032730103
0.071914911270142
0.07275390625
0.074061870574951
0.074408054351807
0.073083877563477
0.073446035385132
0.07289719581604
0.07235312461853
0.071984052658081
0.071499109268188
0.071274995803833
0.07292914390564
0.072037935256958
0.072067022323608
0.072016000747681
0.073012113571167
0.071607828140259
0.07219386100769
0.071731090545654
0.073518991470337
0.071342945098877
0.071223974227905
0.078866004943848
0.081371068954468
0.080735921859741
0.071779012680054
0.072641849517822
0.1289918422699
0.071961164474487
0.071671009063721
0.072251081466675
0.072525024414062
0.074039936065674
0.072151184082031
0.071843862533569
0.07284688949585
0.071474075317383
0.071405172348022
0.071187019348145
0.071562051773071
0.072434186935425
0.081722021102905
0.077646970748901
0.071387052536011
0.072311878204346
0.072576999664307
0.071378946304321
0.071506023406982
0.071624994277954
0.071969032287598
0.071757078170776
0.07177209854126
0.071758031845093
0.072957038879395
0.071792125701904
0.072339057922363
0.072057962417603
0.074590921401978
0.078480005264282
0.073782920837402
0.071704864501953
0.07249903678894
0.073786020278931
0.072505950927734
0.072586059570312
0.074163913726807
0.082298040390015
0.082387924194336
0.082776069641113
0.08167290687561
0.080976009368896
0.073060989379883
0.071457862854004
0.071225881576538
0.073199987411499
0.072751045227051
0.072037935256958
0.078765153884888
0.081615924835205
0.082082986831665
0.081297159194946
0.081176996231079
0.081079006195068
0.081212997436523
0.082588911056519
0.080932140350342
0.080810785293579
0.081695079803467
0.081362962722778
0.081112861633301
0.081338882446289
0.081063032150269
0.081484794616699
0.081743001937866
0.081736087799072
0.0814368724823
0.081977128982544
0.081449031829834
0.081120014190674
0.073365926742554
0.07349419593811
0.072216987609863
0.072347164154053
0.072460889816284
0.073071002960205
0.072539091110229
0.07194185256958
0.07209300994873
0.07263708114624
0.081961870193481
0.082503080368042
0.082049131393433
0.082381963729858
0.082165956497192
0.081957817077637
0.082251071929932
0.082195043563843
0.083536863327026
0.082691192626953
0.082746982574463
0.082554817199707
0.083280086517334
0.082555055618286
0.082238912582397
0.082065105438232
0.082321166992188
0.082037925720215
0.082266092300415
0.082119941711426
0.082141876220703
0.082231998443604
0.082065105438232
0.081873178482056
0.076478958129883
0.071969985961914
0.071501016616821
0.071929931640625
0.07185697555542
0.071985960006714
0.071581125259399
0.071429967880249
0.072973012924194
0.072715044021606
0.072007894515991
0.076560020446777
0.083473920822144
0.082195997238159
0.092206954956055
0.084168910980225
0.082332849502563
0.082486152648926
0.082470893859863
0.081713914871216
0.072593927383423
0.071700811386108
0.071552038192749
0.071640968322754
0.071789026260376
0.072123050689697
0.071988105773926
0.073490858078003
0.14771890640259
0.071993827819824
0.071844100952148
0.071783065795898
0.07348108291626
0.072389125823975
0.072336912155151
0.072299003601074
0.073377847671509
0.072073936462402
0.072330951690674
0.071796894073486
0.073858976364136
0.074015140533447
0.071687936782837
0.072211980819702
0.072149038314819
0.079073190689087
0.081804037094116
0.081683874130249
0.081028938293457
0.081073045730591
0.081128120422363
0.081264972686768
0.081782102584839
0.082149982452393
0.079339981079102
0.071605920791626
0.07112193107605
0.071036100387573
0.071040868759155
0.071352005004883
0.071824073791504
0.07105016708374
0.070940017700195
0.07176399230957
0.071317911148071
0.072285890579224
0.072733879089355
0.071797847747803
0.072154998779297
0.071348905563354
0.072373151779175
0.072345018386841
0.072161912918091
0.072003841400146
0.071702003479004
0.071738004684448
0.071901082992554
0.080840826034546
0.083439826965332
0.083325862884521
0.077354907989502
0.071698904037476
0.071788787841797
0.072275876998901
0.071991920471191
0.083292007446289
0.082517147064209
0.072016954421997
0.072278022766113
0.071163892745972
0.071422100067139
0.071152925491333
0.071260929107666
0.072358846664429
0.092909097671509
0.071394920349121
0.071708917617798
0.071337938308716
0.071188926696777
0.072262048721313
0.072134017944336
0.071853876113892
0.073567152023315
0.071911811828613
0.071291923522949
0.071412086486816
0.071650981903076
0.072537183761597
0.07387113571167
0.072761058807373
0.072194814682007
0.073742151260376
0.073986053466797
0.071604013442993
0.073817014694214
0.073008060455322
0.072695016860962
0.072948932647705
0.072390794754028
0.072093963623047
0.072978973388672
0.072242021560669
0.072038173675537
0.072284936904907
0.077181100845337
0.083769083023071
0.08282995223999
0.082542181015015
0.082594156265259
0.082170963287354
0.082108974456787
0.08271598815918
0.08212685585022
0.082218885421753
0.082160949707031
0.082111120223999
0.081812858581543
0.082501888275146
0.082499027252197
0.08244514465332
0.082365989685059
0.08232593536377
0.08100414276123
0.071712970733643
0.071624994277954
0.073596954345703
0.072196006774902
0.071573972702026
0.071946144104004
0.071937084197998
0.076207876205444
0.082687854766846
0.073340892791748
0.072595119476318
0.072357892990112
0.07226300239563
0.072979927062988
0.072293996810913
0.073454856872559
0.074224948883057
0.072877168655396
0.072828054428101
0.072486877441406
0.073072910308838
0.073199987411499
0.072041988372803
0.072432994842529
0.07306694984436
0.072726011276245
0.072340965270996
0.07292103767395
0.07209300994873
0.072628974914551
0.072320938110352
0.079485177993774
0.081804990768433
0.081546068191528
0.081932067871094
0.081362009048462
0.082391023635864
0.081817865371704
0.081210136413574
0.081311941146851
0.073017120361328
0.07210111618042
0.072494983673096
0.072113037109375
0.072419166564941
0.071923017501831
0.072777986526489
0.07227087020874
0.072205066680908
0.072422981262207
0.07320499420166
0.072923898696899
0.071837902069092
0.072235822677612
0.072014093399048
0.072033882141113
0.074846982955933
0.072363138198853
0.071809053421021
0.072229862213135
0.07250714302063
0.071794033050537
0.071501970291138
0.071496963500977
0.071939945220947
0.072494029998779
0.071347951889038
0.073110103607178
0.072418928146362
0.072657108306885
0.071897983551025
0.073500156402588
0.071604013442993
0.071896076202393
0.073486089706421
0.07249903678894
0.072851896286011
0.072149991989136
0.072030067443848
0.072452068328857
0.071451187133789
0.071959972381592
0.072275161743164
0.07200288772583
0.071732044219971
0.071367979049683
0.075570106506348
0.072092056274414
0.079816818237305
0.072106838226318
0.073180913925171
0.072024822235107
0.072395086288452
0.071580171585083
0.073060989379883
0.073875188827515
0.073935985565186
0.073489904403687
0.074579954147339
0.073757886886597
0.071073055267334
0.071004867553711
0.071398019790649
0.071554899215698
0.072113990783691
0.073264122009277
0.073170900344849
0.071686029434204
0.071529150009155
0.072999000549316
0.071564912796021
0.071584939956665
0.072630882263184
0.072458028793335
0.072262048721313
0.072628021240234
0.071700811386108
0.07160496711731
0.075659036636353
0.076822996139526
0.072403907775879
0.071717977523804
0.072776794433594
0.073646068572998
0.072711944580078
0.072539806365967
0.072427034378052
0.07223105430603
0.07191801071167
0.073681116104126
0.072234869003296
0.07200813293457
0.072819948196411
0.071455001831055
0.071612119674683
0.071493148803711
0.072751998901367
0.071839094161987
0.071690082550049
0.072608947753906
0.072801828384399
0.072895050048828
0.071676015853882
0.071658134460449
0.071463108062744
0.072679996490479
0.072926998138428
0.074635028839111
0.074170112609863
0.072221040725708
0.071210861206055
0.0763099193573
0.081923007965088
0.081444978713989
0.081568956375122
0.081447124481201
0.075277090072632
0.072487831115723
0.073185920715332
0.072011947631836
0.073605060577393
0.073077917098999
0.071911096572876
0.071243047714233
0.072341918945312
0.071646928787231
0.07167911529541
0.072947978973389
0.074259042739868
0.072180986404419
0.08044695854187
0.0711510181427
0.071493148803711
0.070770978927612
0.071490049362183
0.071197032928467
0.071991205215454
0.071131944656372
0.071236133575439
0.071837902069092
0.07291316986084
0.073588132858276
0.072561979293823
0.075285911560059
0.083390951156616
0.082996129989624
0.081896066665649
0.081751108169556
0.081284046173096
0.081675052642822
0.081218957901001
0.081360101699829
0.08198094367981
0.082141876220703
0.081263065338135
0.081247091293335
0.081068992614746
0.082925081253052
0.081746101379395
0.082184076309204
0.081480026245117
0.081339120864868
0.08122706413269
0.081448078155518
0.081995964050293
0.082594871520996
0.081525087356567
0.081193923950195
0.081268072128296
0.081809043884277
0.081434011459351
0.081509113311768
0.081401109695435
0.081242799758911
0.081263065338135
0.081272840499878
0.081659078598022
0.082046031951904
0.082283973693848
0.0814049243927
0.081544876098633
0.081789970397949
0.08201003074646
0.081863164901733
0.081825971603394
0.081362009048462
0.081470966339111
0.081305980682373
0.082520008087158
0.081941843032837
0.081881999969482
0.081798076629639
0.081379890441895
0.081870079040527
0.081508159637451
0.081702947616577
0.082112073898315
0.081669092178345
0.082350969314575
0.081337928771973
0.081904888153076
0.082213878631592
0.082051038742065
0.081732034683228
0.072095155715942
0.071271181106567
0.07140588760376
0.072031021118164
0.071848154067993
0.071750164031982
0.071665048599243
0.071203947067261
0.075308084487915
0.081836938858032
0.081357002258301
0.081554174423218
0.081793069839478
0.082098007202148
0.073782920837402
0.071983098983765
0.071627140045166
0.071780920028687
0.072513818740845
0.071255207061768
0.071933031082153
0.071436882019043
0.071991920471191
0.071712970733643
0.071041107177734
0.071895837783813
0.071449995040894
0.07157301902771
0.072062015533447
0.071755886077881
0.072173118591309
0.07217001914978
0.072641849517822
0.072518110275269
0.072232961654663
0.071913003921509
0.072338104248047
0.071491003036499
0.071640968322754
0.072575092315674
0.071638107299805
0.072059869766235
0.072186231613159
0.071132898330688
0.071401119232178
0.071700096130371
0.07236909866333
0.072478055953979
0.073099136352539
0.071456909179688
0.072670936584473
0.074435949325562
0.072613000869751
0.074409008026123
0.072044849395752
0.072174072265625
0.072185039520264
0.073859930038452
0.073904991149902
0.073032855987549
0.072561979293823
0.071715116500854
0.071228981018066
0.071273803710938
0.071278095245361
0.072198867797852
0.073173046112061
0.071517944335938
0.071775913238525
0.071916103363037
0.072951078414917
0.07185697555542
0.072711229324341
0.072046995162964
0.071928977966309
0.072246074676514
0.071805000305176
0.071732997894287
0.071789979934692
0.073166131973267
0.072087049484253
0.071561813354492
0.071954011917114
0.071487903594971
0.071661949157715
0.0715651512146
0.072522878646851
0.072780847549438
0.071406841278076
0.0714271068573
0.07196307182312
0.072144985198975
0.071474075317383
0.072234869003296
0.073148965835571
0.072211980819702
0.07199501991272
0.072174072265625
0.072225093841553
0.072238922119141
0.071629047393799
0.073014974594116
0.071400880813599
0.071029901504517
0.072318077087402
0.071655988693237
0.071662902832031
0.07255482673645
0.072189092636108
0.071685075759888
0.071556806564331
0.071326017379761
0.072476148605347
0.072168111801147
0.072340965270996
0.072019100189209
0.071554899215698
0.07177209854126
0.072233915328979
0.075824022293091
0.082933902740479
0.083173990249634
0.082106113433838
0.078706979751587
0.074032783508301
0.083050012588501
0.082134008407593
0.08210301399231
0.08198094367981
0.074352979660034
0.071871042251587
0.071142911911011
